{
  "_fv": 57,
  "_type": "procedure",
  "definition": {
    "procedurexml": "<xml xmlns=\"https://developers.google.com/blockly/xml\"><block type=\"event_trigger\" deletable=\"false\" x=\"40\" y=\"40\"><field name=\"trigger\">no_ext_trigger</field><next><block type=\"wait\"><value name=\"ticks\"><block type=\"math_dual_ops\"><field name=\"OP\">DIVIDE</field><value name=\"A\"><block type=\"math_dual_ops\"><field name=\"OP\">MULTIPLY</field><value name=\"A\"><block type=\"math_number\"><field name=\"NUM\">6000</field></block></value><value name=\"B\"><block type=\"math_number\"><field name=\"NUM\">3</field></block></value></block></value><value name=\"B\"><block type=\"world_data_num_getgamerule\"><field name=\"gamerulesnumber\">RANDOM_TICK_SPEED</field></block></value></block></value><statement name=\"do\"><block type=\"spawn_particle_multi\"><field name=\"particle\">VILLAGER_HAPPY</field><value name=\"count\"><block type=\"math_number\"><field name=\"NUM\">5</field></block></value><value name=\"x\"><block type=\"coord_x\"></block></value><value name=\"y\"><block type=\"coord_y\"></block></value><value name=\"z\"><block type=\"coord_z\"></block></value><value name=\"dx\"><block type=\"math_number\"><field name=\"NUM\">3</field></block></value><value name=\"dy\"><block type=\"math_number\"><field name=\"NUM\">3</field></block></value><value name=\"dz\"><block type=\"math_number\"><field name=\"NUM\">3</field></block></value><value name=\"speed\"><block type=\"math_number\"><field name=\"NUM\">1</field></block></value><next><block type=\"block_replace\"><field name=\"state\">FALSE</field><field name=\"nbt\">FALSE</field><value name=\"x\"><block type=\"coord_x\"></block></value><value name=\"y\"><block type=\"coord_y\"></block></value><value name=\"z\"><block type=\"coord_z\"></block></value><value name=\"block\"><block type=\"mcitem_allblocks\"><field name=\"value\">CUSTOM:Fl1</field></block></value></block></next></block></statement></block></next></block></xml>"
  }
}