{
	"format_version": "1.12.0",
	"minecraft:geometry": [
		{
			"description": {
				"identifier": "geometry.unknown",
				"texture_width": 64,
				"texture_height": 64,
				"visible_bounds_width": 2,
				"visible_bounds_height": 2.5,
				"visible_bounds_offset": [0, 0.75, 0]
			},
			"bones": [
				{
					"name": "bb_main",
					"pivot": [0, 0, 0],
					"cubes": [
						{
							"origin": [-5, 0, 0],
							"size": [10, 13, 0],
							"uv": {
								"north": {"uv": [0, 0], "uv_size": [10, 13]},
								"east": {"uv": [0, 0], "uv_size": [0, 13]},
								"south": {"uv": [10, 0], "uv_size": [10, 13]},
								"west": {"uv": [0, 0], "uv_size": [0, 13]},
								"up": {"uv": [0, 0], "uv_size": [10, 0]},
								"down": {"uv": [0, 0], "uv_size": [10, 0]}
							}
						},
						{
							"origin": [-5, 0, 0],
							"size": [10, 13, 0],
							"pivot": [0, 0, 0],
							"rotation": [0, 90, 0],
							"uv": {
								"north": {"uv": [0, 13], "uv_size": [10, 13]},
								"east": {"uv": [0, 0], "uv_size": [0, 13]},
								"south": {"uv": [10, 13], "uv_size": [10, 13]},
								"west": {"uv": [0, 0], "uv_size": [0, 13]},
								"up": {"uv": [0, 0], "uv_size": [10, 0]},
								"down": {"uv": [0, 0], "uv_size": [10, 0]}
							}
						}
					]
				},
				{
					"name": "fruct",
					"pivot": [-4, 2, 0],
					"cubes": [
						{
							"origin": [2, 14, -2],
							"size": [0, 4, 4],
							"pivot": [2, 14, 0],
							"rotation": [0, 0, 22.5],
							"uv": {
								"north": {"uv": [0, 0], "uv_size": [0, 4]},
								"east": {"uv": [2, 44], "uv_size": [4, 4]},
								"south": {"uv": [0, 0], "uv_size": [0, 4]},
								"west": {"uv": [4, 35], "uv_size": [4, 4]},
								"up": {"uv": [0, 0], "uv_size": [0, 4]},
								"down": {"uv": [0, 4], "uv_size": [0, -4]}
							}
						},
						{
							"origin": [-2, 14, -2],
							"size": [4, 4, 0],
							"pivot": [0, 14, -2],
							"rotation": [22.5, 0, 0],
							"uv": {
								"north": {"uv": [50, 42], "uv_size": [4, 4]},
								"east": {"uv": [0, 0], "uv_size": [0, 4]},
								"south": {"uv": [30, 34], "uv_size": [4, 4]},
								"west": {"uv": [0, 0], "uv_size": [0, 4]},
								"up": {"uv": [0, 0], "uv_size": [4, 0]},
								"down": {"uv": [0, 0], "uv_size": [4, 0]}
							}
						},
						{
							"origin": [-2, 14, 2],
							"size": [4, 4, 0],
							"pivot": [0, 14, 2],
							"rotation": [-22.5, 0, 0],
							"uv": {
								"north": {"uv": [48, 40], "uv_size": [4, 4]},
								"east": {"uv": [0, 0], "uv_size": [0, 4]},
								"south": {"uv": [34, 34], "uv_size": [4, 4]},
								"west": {"uv": [0, 0], "uv_size": [0, 4]},
								"up": {"uv": [0, 0], "uv_size": [4, 0]},
								"down": {"uv": [0, 0], "uv_size": [4, 0]}
							}
						},
						{
							"origin": [-2, 14, 2],
							"size": [4, 0, 2],
							"pivot": [0, 14, 2],
							"rotation": [-45, 0, 0],
							"uv": {
								"north": {"uv": [0, 0], "uv_size": [4, 0]},
								"east": {"uv": [0, 0], "uv_size": [2, 0]},
								"south": {"uv": [0, 0], "uv_size": [4, 0]},
								"west": {"uv": [0, 0], "uv_size": [2, 0]},
								"up": {"uv": [24, 36], "uv_size": [4, 2]},
								"down": {"uv": [44, 20], "uv_size": [4, -2]}
							}
						},
						{
							"origin": [-4, 14, -2],
							"size": [2, 0, 4],
							"pivot": [-2, 14, 0],
							"rotation": [0, 0, -45],
							"uv": {
								"north": {"uv": [0, 0], "uv_size": [2, 0]},
								"east": {"uv": [0, 0], "uv_size": [4, 0]},
								"south": {"uv": [0, 0], "uv_size": [2, 0]},
								"west": {"uv": [0, 0], "uv_size": [4, 0]},
								"up": {"uv": [44, 24], "uv_size": [2, 4]},
								"down": {"uv": [26, 42], "uv_size": [2, -4]}
							}
						},
						{
							"origin": [2, 14, -2],
							"size": [2, 0, 4],
							"pivot": [2, 14, 0],
							"rotation": [0, 0, 45],
							"uv": {
								"north": {"uv": [0, 0], "uv_size": [2, 0]},
								"east": {"uv": [0, 0], "uv_size": [4, 0]},
								"south": {"uv": [0, 0], "uv_size": [2, 0]},
								"west": {"uv": [0, 0], "uv_size": [4, 0]},
								"up": {"uv": [28, 36], "uv_size": [2, 4]},
								"down": {"uv": [20, 49], "uv_size": [2, -4]}
							}
						},
						{
							"origin": [-2, 14, -4],
							"size": [4, 0, 2],
							"pivot": [0, 14, -2],
							"rotation": [45, 0, 0],
							"uv": {
								"north": {"uv": [0, 0], "uv_size": [4, 0]},
								"east": {"uv": [0, 0], "uv_size": [2, 0]},
								"south": {"uv": [0, 0], "uv_size": [4, 0]},
								"west": {"uv": [0, 0], "uv_size": [2, 0]},
								"up": {"uv": [38, 20], "uv_size": [4, 2]},
								"down": {"uv": [44, 24], "uv_size": [4, -2]}
							}
						},
						{
							"origin": [-2, 13, -2],
							"size": [4, 1, 4],
							"uv": {
								"north": {"uv": [38, 28], "uv_size": [4, 1]},
								"east": {"uv": [38, 29], "uv_size": [4, 1]},
								"south": {"uv": [30, 38], "uv_size": [4, 1]},
								"west": {"uv": [38, 30], "uv_size": [4, 1]},
								"up": {"uv": [16, 35], "uv_size": [4, 4]},
								"down": {"uv": [20, 40], "uv_size": [4, -4]}
							}
						},
						{
							"origin": [-2, 14, -2],
							"size": [0, 4, 4],
							"pivot": [-2, 14, 0],
							"rotation": [0, 0, -22.5],
							"uv": {
								"north": {"uv": [0, 0], "uv_size": [0, 4]},
								"east": {"uv": [8, 35], "uv_size": [4, 4]},
								"south": {"uv": [0, 0], "uv_size": [0, 4]},
								"west": {"uv": [17, 49], "uv_size": [4, 4]},
								"up": {"uv": [0, 0], "uv_size": [0, 4]},
								"down": {"uv": [0, 4], "uv_size": [0, -4]}
							}
						}
					]
				},
				{
					"name": "bone2",
					"pivot": [3, 6, -4]
				}
			]
		}
	]
}